{
    // Do not call home
    "extensions.autoCheckUpdates": false,
    "extensions.autoUpdate": false,
    "extensions.ignoreRecommendations": true,
    "git.autofetch": false,
    "npm.fetchOnlinePackageInfo": false,
    "telemetry.telemetryLevel": "off",
    "update.mode": "manual",
    "update.showReleaseNotes": false,
    "workbench.enableExperiments": false,
    "workbench.settings.enableNaturalLanguageSearch": false,

    // Settings
    "editor.lineNumbers": "relative",
    "editor.minimap.enabled": false,
    "editor.selectionHighlight": false,
    "security.workspace.trust.banner": "never",
    "security.workspace.trust.startupPrompt": "never",
    "security.workspace.trust.untrustedFiles": "open",
    "workbench.settings.editor": "ui",
    "workbench.startupEditor": "none",

    // Fonts & Co.
    "editor.fontFamily": "JetBrains Mono, SauceCodePro Nerd Font, monospace",
    "editor.fontSize": 14,
    "editor.fontWeight": 400,
    "terminal.integrated.fontSize": 14,

    // VSCodeVim
    "vim.incsearch": true,
    "vim.useSystemClipboard": true,
    "vim.useCtrlKeys": true,
    "vim.hlsearch": true,

    // Material Icon Theme
    "material-icon-theme.activeIconPack": "none",
    "material-icon-theme.folders.color": "#5699af",
    "material-icon-theme.folders.theme": "classic",
    "material-icon-theme.saturation": 0.6,
    "workbench.iconTheme": "material-icon-theme",

    // Bracket Pair Colorizer
    "bracket-pair-colorizer-2.colors": [
        "#5699af",
        "#d08770",
        "#a3be8c",
        "#bf616a",
        "#88c0d0",
        "#b48ead"
    ],

    // Ansible
    "redhat.telemetry.enabled": false,
    "workbench.colorTheme": "Timu macOS dark Theme",

    // EasyMotion
    "vim.easymotion": true,
    "vim.easymotionDimBackground": false,
    "vim.easymotionKeys": "hklyuiopnmqwertzxcvbasdgjf",
    "vim.easymotionMarkerBackgroundColor": "#d08770",
    "vim.easymotionMarkerForegroundColorOneChar": "#2b303b",
    "vim.easymotionMarkerForegroundColorTwoCharFirst": "#2b303b",
    "vim.easymotionMarkerForegroundColorTwoCharSecond": "#2b303b",
    "vim.normalModeKeyBindingsNonRecursive": [
        {
        "before": ["s"],
        "after": ["leader", "leader", "s"]
    }
    ],
    "bracketPairColorizer.depreciation-notice": false
}
